Residency II: Data Visualization and Qualitative Analysis
…
A. General principles
B. Coding together   
C. Guided practice    
D. "Reach" activities   

---

# 3A. General principles

One way to carry out qualitative analysis is to examine the _tokens_, or words, in text.

**Example text, with one line per line in the book**

```
## # A tibble: 13,030 x 1
##    txt                                                                      
##    <chr>                                                                    
##  1 "PRIDE AND PREJUDICE"                                                    
##  2 ""                                                                       
##  3 "By Jane Austen"                                                         
##  4 ""                                                                       
##  5 ""                                                                       
##  6 ""                                                                       
##  7 "Chapter 1"                                                              
##  8 ""                                                                       
##  9 ""                                                                       
## 10 "It is a truth universally acknowledged, that a single man in possession"
## # … with 13,020 more rows
```

---

# 3A. General principles

One way to carry out qualitative analysis is to examine the _tokens_, or words, in text.

**Tokens (words) in the book**

```
## # A tibble: 122,204 x 1
##    word     
##    <chr>    
##  1 pride    
##  2 and      
##  3 prejudice
##  4 by       
##  5 jane     
##  6 austen   
##  7 chapter  
##  8 1        
##  9 it       
## 10 is       
## # … with 122,194 more rows
```
…
